{
  "project_info": {
    "project_number": "831536065194",
    "project_id": "resysclagem"
  },
  "client": [
    {
      "client_info": {
        "mobilesdk_app_id": "1:831536065194:android:d62a04ef68e3b251",
        "android_client_info": {
          "package_name": "com.example.samsung.tcc"
        }
      },
      "oauth_client": [
        {
          "client_id": "831536065194-c965ht47nio44ad5j6g8kohsd7c55alh.apps.googleusercontent.com",
          "client_type": 1,
          "android_info": {
            "package_name": "com.example.samsung.tcc",
            "certificate_hash": "d7d4af919c1be2f8f416c8e42d219a0fa95a2f48"
          }
        },
        {
          "client_id": "831536065194-lkokru638k6em4p9um6vml8qubclu1cr.apps.googleusercontent.com",
          "client_type": 3
        }
      ],
      "api_key": [
        {
          "current_key": "AIzaSyC7NhxfpIXKG3I82h-pVchZRf7WXCvHLT8"
        }
      ],
      "services": {
        "analytics_service": {
          "status": 1
        },
        "appinvite_service": {
          "status": 1,
          "other_platform_oauth_client": []
        },
        "ads_service": {
          "status": 1
        }
      }
    }
  ],
  "configuration_version": "1"
}